{
  "formenctype": {
    "@description": "Specifies how form-data should be encoded before sending it to a server. Only for type=submit",
    "@options": [
      {"value": "application/x-www-form-urlencoded", "description": ""},
      {"value": "multipart/form-data", "description": ""},
      {"value": "text/plain", "description": ""}
    ]
  },
  "formmethod": {
    "@description": "Specifies how to send the form-data (which HTTP method to use). Only for type=submit",
    "@options": [
      {"value": "get", "description": ""},
      {"value": "post", "description": ""}
    ]
  },
  "formnovalidate": {
    "@description": "Specifies that the form-data should not be validated on submission. Only for type=submit"
  }
}